id;title;creation_date;cover_image;cover_image_content_type
1;Handmade Cotton Table CSS;2021-01-01T16:17:32;../fake-data/blob/hipster.png;image/png
2;Vermont cyan;2021-01-01T14:11:04;../fake-data/blob/hipster.png;image/png
3;digital forecast Bahrain;2021-01-01T10:24:32;../fake-data/blob/hipster.png;image/png
4;Developer compress transmit;2021-01-01T11:34:37;../fake-data/blob/hipster.png;image/png
5;mobile intuitive high-level;2021-01-02T08:33:37;../fake-data/blob/hipster.png;image/png
6;Georgia generate;2021-01-01T19:57:01;../fake-data/blob/hipster.png;image/png
7;Sudan connect Overpass;2021-01-02T02:32:45;../fake-data/blob/hipster.png;image/png
8;ADP Texas auxiliary;2021-01-01T10:11:05;../fake-data/blob/hipster.png;image/png
9;Cotton Representative software;2021-01-01T11:15:57;../fake-data/blob/hipster.png;image/png
10;secondary driver;2021-01-01T19:55:02;../fake-data/blob/hipster.png;image/png
